{
  "color-primary-100": "#C6E2F8",
  "color-primary-200": "#91C3F2",
  "color-primary-300": "#5695D8",
  "color-primary-400": "#2C67B2",
  "color-primary-500": "#003380",
  "color-primary-600": "#00276E",
  "color-primary-700": "#001D5C",
  "color-primary-800": "#00144A",
  "color-primary-900": "#000E3D",
  "color-primary-transparent-100": "rgba(0, 51, 128, 0.08)",
  "color-primary-transparent-200": "rgba(0, 51, 128, 0.16)",
  "color-primary-transparent-300": "rgba(0, 51, 128, 0.24)",
  "color-primary-transparent-400": "rgba(0, 51, 128, 0.32)",
  "color-primary-transparent-500": "rgba(0, 51, 128, 0.4)",
  "color-primary-transparent-600": "rgba(0, 51, 128, 0.48)",
  "color-success-100": "#E2FCD6",
  "color-success-200": "#C0FAAF",
  "color-success-300": "#93F084",
  "color-success-400": "#69E163",
  "color-success-500": "#34ce3a",
  "color-success-600": "#26B137",
  "color-success-700": "#1A9434",
  "color-success-800": "#10772F",
  "color-success-900": "#09622C",
  "color-success-transparent-100": "rgba(52, 206, 58, 0.08)",
  "color-success-transparent-200": "rgba(52, 206, 58, 0.16)",
  "color-success-transparent-300": "rgba(52, 206, 58, 0.24)",
  "color-success-transparent-400": "rgba(52, 206, 58, 0.32)",
  "color-success-transparent-500": "rgba(52, 206, 58, 0.4)",
  "color-success-transparent-600": "rgba(52, 206, 58, 0.48)",
  "color-info-100": "#D6FCED",
  "color-info-200": "#AEFAE2",
  "color-info-300": "#83F0D8",
  "color-info-400": "#62E2D1",
  "color-info-500": "#33cfc8",
  "color-info-600": "#25ABB2",
  "color-info-700": "#198495",
  "color-info-800": "#106178",
  "color-info-900": "#094763",
  "color-info-transparent-100": "rgba(51, 207, 200, 0.08)",
  "color-info-transparent-200": "rgba(51, 207, 200, 0.16)",
  "color-info-transparent-300": "rgba(51, 207, 200, 0.24)",
  "color-info-transparent-400": "rgba(51, 207, 200, 0.32)",
  "color-info-transparent-500": "rgba(51, 207, 200, 0.4)",
  "color-info-transparent-600": "rgba(51, 207, 200, 0.48)",
  "color-warning-100": "#FDFAD7",
  "color-warning-200": "#FCF4B0",
  "color-warning-300": "#F8E988",
  "color-warning-400": "#F1DC69",
  "color-warning-500": "#e8cb3a",
  "color-warning-600": "#C7AA2A",
  "color-warning-700": "#A78B1D",
  "color-warning-800": "#866D12",
  "color-warning-900": "#6F570B",
  "color-warning-transparent-100": "rgba(232, 203, 58, 0.08)",
  "color-warning-transparent-200": "rgba(232, 203, 58, 0.16)",
  "color-warning-transparent-300": "rgba(232, 203, 58, 0.24)",
  "color-warning-transparent-400": "rgba(232, 203, 58, 0.32)",
  "color-warning-transparent-500": "rgba(232, 203, 58, 0.4)",
  "color-warning-transparent-600": "rgba(232, 203, 58, 0.48)",
  "color-danger-100": "#FDE7DB",
  "color-danger-200": "#FCCAB9",
  "color-danger-300": "#F8A594",
  "color-danger-400": "#F18278",
  "color-danger-500": "#e84d4d",
  "color-danger-600": "#C73844",
  "color-danger-700": "#A7263D",
  "color-danger-800": "#861835",
  "color-danger-900": "#6F0E30",
  "color-danger-transparent-100": "rgba(232, 77, 77, 0.08)",
  "color-danger-transparent-200": "rgba(232, 77, 77, 0.16)",
  "color-danger-transparent-300": "rgba(232, 77, 77, 0.24)",
  "color-danger-transparent-400": "rgba(232, 77, 77, 0.32)",
  "color-danger-transparent-500": "rgba(232, 77, 77, 0.4)",
  "color-danger-transparent-600": "rgba(232, 77, 77, 0.48)",
  "color-basic-100": "#e2e2e2",
  "color-basic-200": "#e6e6e6",
  "color-basic-300": "#f6f6f6",
  "color-basic-400": "#f2f2f2",
  "color-basic-500": "#ffffff",
  "color-basic-600": "#003380",
  "color-basic-700": "pink",
  "color-basic-800": "#333333",
  "color-basic-900": "orange",
  "color-basic-1000": "#e2e2e2",
  "color-basic-1100": "#001636",
  "color-basic-transparent-100": "rgba(128, 128, 128, 0.08)",
  "color-basic-transparent-200": "rgba(128, 128, 128, 0.16)",
  "color-basic-transparent-300": "rgba(128, 128, 128, 0.24)",
  "color-basic-transparent-400": "rgba(128, 128, 128, 0.32)",
  "color-basic-transparent-500": "rgba(128, 128, 128, 0.4)",
  "color-basic-transparent-600": "rgba(128, 128, 128, 0.48)",
  "underlay-color": "#e6e6e6",
  "header-color": "#f2f2f2",
  "logo-color-basic": "#003380"
}
