<?xml version="1.0" encoding="UTF-8" standalone="no"?>
<!-- Created with Inkscape (http://www.inkscape.org/) -->

<svg
   xmlns:dc="http://purl.org/dc/elements/1.1/"
   xmlns:cc="http://creativecommons.org/ns#"
   xmlns:rdf="http://www.w3.org/1999/02/22-rdf-syntax-ns#"
   xmlns:svg="http://www.w3.org/2000/svg"
   xmlns="http://www.w3.org/2000/svg"
   xmlns:sodipodi="http://sodipodi.sourceforge.net/DTD/sodipodi-0.dtd"
   xmlns:inkscape="http://www.inkscape.org/namespaces/inkscape"
   width="48"
   height="48"
   viewBox="0 0 12.7 12.7"
   version="1.1"
   id="svg5985"
   inkscape:version="0.92.5 (2060ec1f9f, 2020-04-08)"
   sodipodi:docname="logo.svg">
  <title
     id="title6606">dudasmx-logo</title>
  <defs
     id="defs5979" />
  <sodipodi:namedview
     id="base"
     pagecolor="#ffffff"
     bordercolor="#666666"
     borderopacity="1.0"
     inkscape:pageopacity="0.0"
     inkscape:pageshadow="2"
     inkscape:zoom="7.9195959"
     inkscape:cx="33.709968"
     inkscape:cy="37.874647"
     inkscape:document-units="mm"
     inkscape:current-layer="layer1"
     showgrid="false"
     units="px"
     inkscape:window-width="1920"
     inkscape:window-height="1057"
     inkscape:window-x="1358"
     inkscape:window-y="-8"
     inkscape:window-maximized="1" />
  <metadata
     id="metadata5982">
    <rdf:RDF>
      <cc:Work
         rdf:about="">
        <dc:format>image/svg+xml</dc:format>
        <dc:type
           rdf:resource="http://purl.org/dc/dcmitype/StillImage" />
        <dc:title>dudasmx-logo</dc:title>
      </cc:Work>
    </rdf:RDF>
  </metadata>
  <g
     inkscape:label="Layer 1"
     inkscape:groupmode="layer"
     id="layer1"
     transform="translate(0,-284.29999)">
    <g
       id="g6577"
       transform="matrix(0.048,0,0,0.048,11.305282,283.56411)">
      <path
         id="rect1294"
         d="m -209.02084,15.407728 h 79.37501 c 14.65791,0 26.45833,11.800417 26.45833,26.458334 v 79.375008 c 0,14.65791 -11.80042,26.45833 -26.45833,26.45833 h -79.37501 c -14.65791,0 -26.45833,-11.80042 -26.45833,-26.45833 V 41.866062 c 0,-14.657917 11.80042,-26.458334 26.45833,-26.458334 z"
         style="fill:#002255;fill-opacity:1;stroke:none;stroke-width:4.43400002;stroke-linejoin:miter;stroke-miterlimit:4;stroke-dasharray:none;stroke-opacity:1;paint-order:stroke markers fill"
         inkscape:connector-curvature="0" />
      <path
         style="font-style:normal;font-variant:normal;font-weight:normal;font-stretch:normal;font-size:108.73259735px;line-height:1.25;font-family:'Croissant One';-inkscape-font-specification:'Croissant One';letter-spacing:0px;word-spacing:0px;fill:#ffffff;fill-opacity:1;stroke:none;stroke-width:1.26016557"
         d="m -185.81708,41.86605 c -6.52396,0 -12.10546,1.34094 -16.74471,4.02301 -4.56677,2.68207 -6.85023,6.45163 -6.85023,11.30835 0,2.39212 0.8339,4.45784 2.50114,6.19755 1.66723,1.66724 3.69692,2.50114 6.08903,2.50114 2.39212,0 4.45783,-0.86994 6.19756,-2.60966 1.73972,-1.73972 2.60966,-3.69682 2.60966,-5.87147 0,-2.17466 -0.61617,-4.02315 -1.84847,-5.5454 -1.2323,-1.59475 -2.82702,-2.64588 -4.7842,-3.1533 1.8122,-0.79737 3.87792,-1.19631 6.19755,-1.19631 4.78423,0 8.44518,1.55869 10.98228,4.67569 2.53709,3.04451 3.80545,6.70494 3.80545,10.98176 0,4.27681 -1.19629,8.19153 -3.58841,11.74346 -2.39212,3.47944 -6.41494,5.72635 -12.06903,6.7412 l 1.84846,15.875 h 5.87148 l 1.52239,-12.61267 c 6.52395,-1.44977 11.67048,-4.24078 15.43988,-8.37262 3.7694,-4.20432 5.65392,-9.09708 5.65392,-14.67869 0,-5.5816 -2.17433,-10.29368 -6.52363,-14.13557 -4.27682,-3.91437 -9.71368,-5.87147 -16.31012,-5.87147 z m -2.71818,62.62976 c -2.31963,0 -4.31328,0.83391 -5.98052,2.50114 -1.59474,1.59475 -2.39209,3.55185 -2.39209,5.87148 0,2.31963 0.79735,4.31328 2.39209,5.98051 1.66724,1.59474 3.66089,2.3921 5.98052,2.3921 2.31963,0 4.27673,-0.79736 5.87147,-2.3921 1.66724,-1.66723 2.50115,-3.66088 2.50115,-5.98051 0,-2.31963 -0.83391,-4.27673 -2.50115,-5.87148 -1.59474,-1.66723 -3.55184,-2.50114 -5.87147,-2.50114 z"
         id="path1111"
         inkscape:connector-curvature="0" />
      <path
         id="rect1370"
         d="m -234.65234,127.85567 c 2.92276,11.4365 13.25926,19.84374 25.63151,19.84374 h 79.375 c 12.37225,0 22.70874,-8.40724 25.63151,-19.84374 z"
         style="fill:#003380;fill-opacity:1;stroke:none;stroke-width:4.43400002;stroke-linejoin:miter;stroke-miterlimit:4;stroke-dasharray:none;stroke-opacity:1;paint-order:stroke markers fill"
         inkscape:connector-curvature="0" />
      <path
         id="rect4897-0-1"
         d="m -143.14615,41.866055 h 3.96875 v 92.604165 h -3.96875 z"
         style="fill:#ff6600;fill-opacity:1;stroke:none;stroke-width:0.17585608;stroke-linejoin:miter;stroke-miterlimit:4;stroke-dasharray:none;stroke-opacity:1;paint-order:markers stroke fill"
         inkscape:connector-curvature="0" />
    </g>
  </g>
</svg>
